{
  "kind": "collectionType",
  "collectionName": "followeds",
  "info": {
    "name": "Follows",
    "description": ""
  },
  "options": {
    "increments": true,
    "timestamps": true,
    "draftAndPublish": true
  },
  "attributes": {
    "usernames": {
      "type": "string",
      "required": true,
      "unique": true
    },
    "private": {
      "type": "boolean",
      "default": false
    },
    "followed": {
      "type": "boolean",
      "default": false
    },
    "follower": {
      "type": "boolean",
      "default": false
    },
    "descripcion": {
      "type": "text"
    },
    "imagePerfil": {
      "type": "text"
    },
    "posts": {
      "via": "follows",
      "model": "post"
    }
  }
}
